{
  "log" : {
    "version" : "1.2",
    "pages" : [ ],
    "entries" : [ {
      "startedDateTime" : "2022-03-12T16:02:20.786Z",
      "request" : {
        "method" : "POST",
        "url" : "https://reqres.in/api/users",
        "httpVersion" : "",
        "cookies" : [ ],
        "headers" : [ {
          "name" : "Content-Type",
          "value" : "application/json"
        }, {
          "name" : "Accept",
          "value" : "application/json"
        } ],
        "queryString" : [ ],
        "postData" : {
          "mimeType" : "application/json",
          "text" : "{\n    \"name\": \"Excel User 1\",\n    \"job\": \"Excel Job 1\"\n}",
          "comment" : ""
        },
        "headersSize" : 0,
        "bodySize" : 0,
        "comment" : ""
      },
      "response" : {
        "status" : 201,
        "statusText" : "",
        "httpVersion" : "",
        "cookies" : [ ],
        "headers" : [ {
          "name" : "Server",
          "value" : "cloudflare"
        }, {
          "name" : "CF-RAY",
          "value" : "6eadc0ef5a94771a-LHR"
        }, {
          "name" : "Access-Control-Allow-Origin",
          "value" : "*"
        }, {
          "name" : "Connection",
          "value" : "keep-alive"
        }, {
          "name" : "Date",
          "value" : "Sat, 12 Mar 2022 16:02:20 GMT"
        }, {
          "name" : "Via",
          "value" : "1.1 vegur"
        }, {
          "name" : "CF-Cache-Status",
          "value" : "DYNAMIC"
        }, {
          "name" : "Etag",
          "value" : "W/\"5d-qrSPNtk1sCCqhnqOvhkulpmATzI\""
        }, {
          "name" : "NEL",
          "value" : "{\"success_fraction\":0,\"report_to\":\"cf-nel\",\"max_age\":604800}"
        }, {
          "name" : "Report-To",
          "value" : "{\"endpoints\":[{\"url\":\"https:\\/\\/a.nel.cloudflare.com\\/report\\/v3?s=eSbloC%2FJfsGoisTExYUuUqK7lgXBnyouiLTVlcAELRr8R1PSD8rTm7YWs%2F%2FeAIstMydugfuu4tMsDQ4D1CPHkI7Fus3zz8f1M4VBlBCDGXQJjg8xjcGS9xioxnk%3D\"}],\"group\":\"cf-nel\",\"max_age\":604800}"
        }, {
          "name" : "#status#",
          "value" : "HTTP/1.1 201 Created"
        }, {
          "name" : "Content-Length",
          "value" : "93"
        }, {
          "name" : "alt-svc",
          "value" : "h3=\":443\"; ma=86400, h3-29=\":443\"; ma=86400"
        }, {
          "name" : "Content-Type",
          "value" : "application/json; charset=utf-8"
        }, {
          "name" : "X-Powered-By",
          "value" : "Express"
        }, {
          "name" : "Expect-CT",
          "value" : "max-age=604800, report-uri=\"https://report-uri.cloudflare.com/cdn-cgi/beacon/expect-ct\""
        } ],
        "content" : {
          "size" : 93,
          "mimeType" : "application/json; charset=utf-8",
          "text" : "{\"name\":\"Excel User 1\",\"job\":\"Excel Job 1\",\"id\":\"624\",\"createdAt\":\"2022-03-12T16:02:20.734Z\"}",
          "comment" : ""
        },
        "redirectURL" : "",
        "headersSize" : 728,
        "bodySize" : 93,
        "comment" : ""
      },
      "cache" : { },
      "timings" : {
        "comment" : "",
        "blocked" : -1,
        "dns" : -1,
        "connect" : 0,
        "send" : 0,
        "wait" : 0,
        "receive" : 0,
        "ssl" : -1
      },
      "comment" : "",
      "_katalonRequestInformation" : {
        "name" : "0",
        "testObjectId" : "Object Repository/OR Reqres/POST Create New User",
        "harId" : "a7c9bee8-8b5f-4d90-a5c9-e0c700062ffe",
        "reportFolder" : null
      },
      "time" : 0
    } ],
    "comment" : ""
  }
}